{
  "appId": "com.bergitech.heyhandball",
  "appName": "HeyHandball!",
  "bundledWebRuntime": false,
  "npmClient": "npm",
  "webDir": "www",
  "cordova": {},
  "linuxAndroidStudioPath": "/snap/bin/android-studio"
}
